58.391204 26.724087
58.391769 26.722553
58.392013 26.720299
58.391014 26.718888
58.391316 26.717072
58.392229 26.714993
58.393764 26.710944
58.393924 26.710146
58.396069 26.712403
58.396859 26.713738
58.397525 26.716184
58.395260 26.713955
58.389143 26.728224
58.383178 26.727312
58.383178 26.727312
58.378479 26.729914
58.376482 26.725869
58.375045 26.723667
58.375401 26.720172
58.373288 26.714947
58.371294 26.714464
58.371556 26.716696
58.370647 26.718906
58.368827 26.721449
58.366073 26.721470
58.363842 26.721062
58.356273 26.722066
58.355561 26.725226
58.355824 26.730274
58.353453 26.741016
58.342915 26.737926